com/example/WhereHouse/services/ENVService.class
com/example/WhereHouse/services/DatabaseService.class
com/example/WhereHouse/models/SQLTables.class
com/example/WhereHouse/controllers/WhereHouseController.class
com/example/WhereHouse/models/SQLTables$1.class
com/example/WhereHouse/models/ItemObject/ItemObject.class
com/example/WhereHouse/models/ItemObject/ItemObjectInterface.class
com/example/WhereHouse/controllers/KafkaConsumer.class
com/example/WhereHouse/models/ItemObject/ItemKeysEnum.class
com/example/WhereHouse/services/ENVService$EnvKeys.class
